version="*"
tags={
	"Fixes"
}
replace_path="history/countries"
replace_path="history/states"
replace_path="history/units"
replace_path="common/scripted_localisation"
replace_path="common/ai_equipment"
replace_path="common/technologies"
replace_path="common/ai_peace"
replace_path="common/ai_templaets"
replace_path="common/ideas"
replace_path="common/buildings"
replace_path="common/buildings"
replace_path="common/ai_focuses"
replace_path="common/modifiers"
replace_path="common/country_tags"
replace_path="common/national_focus"
replace_path="common/names"
replace_path="common/ai_strategy"
replace_path="common/on_actions"
replace_path="common/national_focus"
replace_path="common/decisions"
replace_path="common/decisions/categories"
replace_path="common/units/names_divisions"
replace_path="common/units/names_ships"
replace_path="common/bookmarks"
replace_path="common/scripted_effects"
replace_path="common/intelligence_agency_upgrades"
replace_path="common/ai_strategy_plans"
replace_path="common/scripted_triggers"
replace_path="common/operations"
replace_path="common/unit_leader"
replace_path="events"
replace_path="common/abilities"
replace_path="common/country_leader"
replace_path="common/autonomous_states"
replace_path="events"
name="elwolfmod"
supported_version="1.10.4"
remote_file_id="2189489529"