ideas = {
	country = {
		militarized_schools = {
		
			removal_cost = -1
			
			allowed = {
				always = no # Added via focus
			}

			allowed_civil_war = {
				NOT = {
					has_government = democratic
				}
			}

			picture = generic_manpower_bonus
			
			modifier = {
				conscription = 0.005
			}
		}
	
		workers_culture = {
			
			removal_cost = -1
			
			allowed = {
				always = no # Added via focus
			}

			allowed_civil_war = {
				has_government = communism
			}

			picture = generic_production_bonus
			
			modifier = {
				production_speed_buildings_factor = 0.10
			}
		}
	
		partisan_suppression_focus = {
			
			removal_cost = -1
			
			allowed = {
				always = no # Added via focus
			}

			allowed_civil_war = {
				NOT = {
					has_government = democratic
				}
			}

			picture = generic_intel_bonus
			
			modifier = {
				resistance_damage_to_garrison = -0.25 
			}
		}

		smersh = {
			allowed = {
				always = no # Added via focus
			}
			name = SOV_smersh

			removal_cost = -1
			
			modifier = {
				operative_slot = 1
				intelligence_agency_defense = 0.5
			}
		}

		nkvd = {
			removal_cost = -1
			
			allowed = {
				always = no # Added via focus
			}

			allowed_civil_war = {
				has_government = communism
			}
			
			modifier = {
				subversive_activites_upkeep = -0.5
				operative_slot = 1
			}
		}

		nkvd_2 = {
			removal_cost = -1
			
			allowed = {
				always = no # Added via focus
			}

			allowed_civil_war = {
				has_government = communism
			}
			
			modifier = {
				subversive_activites_upkeep = -0.5
				operative_slot = 1
				land_reinforce_rate = 0.05
			}
		}
		
		comintern_influence = {
			
			removal_cost = -1
			
			allowed = {
				always = no # Added via focus
			}

			allowed_civil_war = {
				always = yes
			}

			picture = generic_communism_drift_bonus
			
			modifier = {
				communism_drift = 0.05
			}
		}

		progress_cult_focus = {
			removal_cost = -1
			
			allowed = {
				always = no # Added via focus
			}

			allowed_civil_war = {
				always = yes
			}
			
			picture = generic_research_bonus
			
			modifier = {
				research_speed_factor = 0.10
			}
		}

		socialist_science_focus = {
			removal_cost = -1
			
			allowed = {
				always = no # Added via focus
			}

			allowed_civil_war = {
				has_government = communism
			}

			picture = generic_manpower_bonus
			
			modifier = {
				conscription = 0.03
			}
		}

		peoples_commissariat_focus = {
			allowed = {
				always = no
			}

			removal_cost = -1

			picture = generic_production_bonus

			allowed_civil_war = {
				has_government = communism
			}

			modifier = {
				conversion_cost_civ_to_mil_factor= -0.2
			}
		}

		rehabilitated_military_focus = {
			removal_cost = -1
			
			allowed = {
				always = no # Added via focus
			}

			allowed_civil_war = {
				always = yes
			}

			picture = generic_morale_bonus
			
			modifier = {
				land_reinforce_rate = 0.02
				army_morale_factor = 0.10
			}
		}
		
		home_of_revolution = {
			removal_cost = -1
			
			allowed = {
				always = no # Added via focus
			}

			allowed_civil_war = {
				has_government = communism
			}
			
			modifier = {
				drift_defence_factor = 0.5
			}
			rule = {
				can_create_factions = yes
			}
		}

		trotskyite_plot = {
			removal_cost = -1
			
			allowed = {
				always = no # Added via focus
			}

			allowed_civil_war = {
				has_government = communism
			}
			
			modifier = {
				stability_factor = -0.2
			}
		}
		
		trotskyite_plot_purged = {
			removal_cost = -1
			
			allowed = {
				always = no # Added via focus
			}

			allowed_civil_war = {
				has_government = communism
			}
			
			modifier = {
				stability_factor = -0.05
			}
		}

		officers_purged = {
			removal_cost = -1
			
			allowed = {
				always = no # Added via focus
			}

			allowed_civil_war = {
				has_government = communism
			}
			
			research_bonus = {
				land_doctrine = -0.10
				naval_doctrine = -0.10
				air_doctrine = -0.10
			}

			modifier = {
				army_org_factor = -0.5
				send_volunteer_factor = -0.8
				industrial_capacity_factory = -0.2
				training_time_factor = 0.5
			}
		}

		officers_purged_2 = {
			removal_cost = -1

			picture = officers_purged
			
			allowed = {
				always = no # Added via focus
			}

			allowed_civil_war = {
				has_government = communism
			}
			
			research_bonus = {
				land_doctrine = -0.09
				naval_doctrine = -0.09
				air_doctrine = -0.09
			}

			modifier = {
				army_org_factor = -0.45
				send_volunteer_factor = -0.74
				industrial_capacity_factory = -0.18
				training_time_factor = 0.45
			}
		}
		officers_purged_3 = {
			removal_cost = -1

			picture = officers_purged
			
			allowed = {
				always = no # Added via focus
			}

			allowed_civil_war = {
				has_government = communism
			}
			
			research_bonus = {
				land_doctrine = -0.08
				naval_doctrine = -0.08
				air_doctrine = -0.08				
			}

			modifier = {
				army_org_factor = -0.4
				send_volunteer_factor = -0.68
				industrial_capacity_factory = -0.16
				training_time_factor = 0.4
			}
		}
		officers_purged_4 = {
			removal_cost = -1

			picture = officers_purged
			
			allowed = {
				always = no # Added via focus
			}

			allowed_civil_war = {
				has_government = communism
			}
			
			research_bonus = {
				land_doctrine = -0.07
				naval_doctrine = -0.07
				air_doctrine = -0.07				
			}

			modifier = {
				army_org_factor = -0.35
				send_volunteer_factor = -0.62
				industrial_capacity_factory = -0.14
				training_time_factor = 0.35
			}
		}
		officers_purged_5 = {
			removal_cost = -1

			picture = officers_purged
			
			allowed = {
				always = no # Added via focus
			}

			allowed_civil_war = {
				has_government = communism
			}
			
			research_bonus = {
				land_doctrine = -0.06
				naval_doctrine = -0.06
				air_doctrine = -0.06
			}

			modifier = {
				army_org_factor = -0.30
				send_volunteer_factor = -0.56
				industrial_capacity_factory = -0.12
				training_time_factor = 0.3
			}
		}
		officers_purged_6 = {
			removal_cost = -1

			picture = officers_purged
			
			allowed = {
				always = no # Added via focus
			}

			allowed_civil_war = {
				has_government = communism
			}
			
			research_bonus = {
				land_doctrine = -0.05
				naval_doctrine = -0.05
				air_doctrine = -0.05
			}

			modifier = {
				army_org_factor = -0.25
				send_volunteer_factor = -0.5
				industrial_capacity_factory = -0.10
				training_time_factor = 0.25
			}
		}
		officers_purged_7 = {
			removal_cost = -1

			picture = officers_purged
			
			allowed = {
				always = no # Added via focus
			}
			
			allowed_civil_war = {
				has_government = communism
			}
			
			research_bonus = {
				land_doctrine = -0.04
				naval_doctrine = -0.04
				air_doctrine = -0.04
			}

			modifier = {
				army_org_factor = -0.20
				send_volunteer_factor = -0.44
				industrial_capacity_factory = -0.08
				training_time_factor = 0.2
			}
		}
		officers_purged_8 = {
			removal_cost = -1

			picture = officers_purged
			
			allowed = {
				always = no # Added via focus
			}

			allowed_civil_war = {
				has_government = communism
			}
			
			research_bonus = {
				land_doctrine = -0.03
				naval_doctrine = -0.03
				air_doctrine = -0.03
			}

			modifier = {
				army_org_factor = -0.15
				send_volunteer_factor = -0.38
				industrial_capacity_factory = -0.06
				training_time_factor = 0.15
			}
		}
		officers_purged_9 = {
			removal_cost = -1

			picture = officers_purged
			
			allowed = {
				always = no # Added via focus
			}

			allowed_civil_war = {
				has_government = communism
			}
			
			research_bonus = {
				land_doctrine = -0.02
				naval_doctrine = -0.02
				air_doctrine = -0.02
			}

			modifier = {
				army_org_factor = -0.10
				send_volunteer_factor = -0.32
				industrial_capacity_factory = -0.04
				training_time_factor = 0.1
			}
		}
		officers_purged_10 = {
			removal_cost = -1

			picture = officers_purged
			
			allowed = {
				always = no # Added via focus
			}

			allowed_civil_war = {
				has_government = communism
			}
			
			research_bonus = {
				land_doctrine = -0.01
				naval_doctrine = -0.01
				air_doctrine = -0.01
			}

			modifier = {
				army_org_factor = -0.05
				send_volunteer_factor = -0.26
				industrial_capacity_factory = -0.02
				training_time_factor = 0.05
			}
		}

		SOV_great_patriotic_war = {
			removal_cost = -1

			picture = generic_intel_bonus
			
			allowed = {
				always = no # Added via event
			}

			allowed_civil_war = {
				has_government = communism
			}
			
			research_bonus = {
				land_doctrine = 0.05
				naval_doctrine = 0.05
				air_doctrine = 0.05
			}

			modifier = {
				army_org_factor = 0.45
				war_support_factor = 0.2
			}
		}

		SOV_great_patriotic_war_2 = {
			removal_cost = -1

			picture = generic_intel_bonus
			
			allowed = {
				always = no # Added via event
			}

			allowed_civil_war = {
				has_government = communism
			}
			
			research_bonus = {
				land_doctrine = 0.04
				naval_doctrine = 0.04
				air_doctrine = 0.04
			}

			modifier = {
				army_org_factor = 0.35
				war_support_factor = 0.15
			}
		}

		SOV_great_patriotic_war_3 = {
			removal_cost = -1
			
			picture = generic_intel_bonus
			
			allowed = {
				always = no # Added via event
			}

			allowed_civil_war = {
				has_government = communism
			}
			
			research_bonus = {
				land_doctrine = 0.03
				naval_doctrine = 0.03
				air_doctrine = 0.03
			}

			modifier = {
				army_org_factor = 0.25
				war_support_factor = 0.1
			}
		}

		SOV_great_patriotic_war_4 = {
			removal_cost = -1
			
			picture = generic_intel_bonus

			allowed = {
				always = no # Added via event
			}

			allowed_civil_war = {
				has_government = communism
			}
			
			research_bonus = {
				land_doctrine = 0.02
				naval_doctrine = 0.02
				air_doctrine = 0.02
			}

			modifier = {
				army_org_factor = 0.15
				war_support_factor = 0.05
			}
		}

		SOV_great_patriotic_war_5 = {
			removal_cost = -1
			
			picture = generic_intel_bonus

			allowed = {
				always = no # Added via event
			}

			allowed_civil_war = {
				has_government = communism
			}
			
			research_bonus = {
				land_doctrine = 0.01
				naval_doctrine = 0.01
				air_doctrine = 0.01
			}

			modifier = {
				army_org_factor = 0.05
			}
		}


		SOV_molotov_ribbentrop_pact = { 
			removal_cost = -1
			
			picture = soviet_german_friendship

			allowed = {
				always = no # Added via event
			}

			allowed_civil_war = {
				has_government = communism
			}

		}

		SOV_collectivist_propaganda = { 
			removal_cost = -1
			
			picture = generic_communism_drift_bonus

			allowed = {
				always = no # Added via focus
			}

			allowed_civil_war = {
				has_government = communism
			}
			
			modifier = {
				stability_factor = 0.2
			}

		}

		SOV_scientist_defect = {

			picture = generic_research_bonus

			allowed = {
				always = no # Added via event
			}

			research_bonus = {
				armor = -0.75
			}

		}
	}


	political_advisor = {
	
		mikhail_kalinin = {
			
			
			allowed = {
				original_tag = "SOV"
			}
			available = 
			{
				NOT = { has_country_flag = purged_kalinin }
				NOT = { has_country_flag = counter_purge }
			}
			

			
			traits = { popular_figurehead }
		}

		SOV_lavrentiy_beria = {
			
			picture = generic_army_europe_4
			
			allowed = {
				original_tag = SOV
			}

			available = 
			{
				custom_trigger_tooltip = {
					tooltip =  SOV_beria_idea
					has_country_flag = purge_2_group_a
				}
				NOT = { 
					has_country_flag = counter_purge
				}
			}
			
			traits = { ideological_crusader }
		}

		SOV_vyacheslav_molotov = {
			
			picture = generic_political_advisor_europe_1
			
			allowed = {
				original_tag = SOV
			}
			
			traits = { smooth_talking_charmer }
		}

		SOV_nikolai_voznesensky = {
			
			picture = generic_political_advisor_europe_2
			
			allowed = {
				original_tag = SOV
			}
			
			traits = { captain_of_industry }
		}

		SOV_nikolai_yezhov = {
			
			picture = generic_army_europe_2
			
			allowed = {
				original_tag = SOV
			}

			available = 
			{
				NOT = { has_country_flag = counter_purge }
				NOT = { has_country_flag = purge_2_group_a }
			}
			
			traits = { prince_of_terror }
		}

		
		
		nikita_khrushchev = {
			
			
			allowed = {
				original_tag = "SOV"
			}
			available = 
			{
				NOT = { has_country_flag = purged_khrushchev }
				NOT = { has_country_flag = counter_purge }
				if = {
					limit = { has_dlc = "Man the Guns" }	
					NOT = { has_autonomy_state = autonomy_supervised_state }
				}
			}
			

			
			traits = { communist_revolutionary }
	
			do_effect = {
				NOT = {
					has_government = communism
				}
			}
			
			ai_will_do = {
				factor = 0
			}
		}	
		
		soviet_vsevolod_merkulov = {
		
			available = {
				has_intelligence_agency = yes
			}
			
			allowed = {
				original_tag = SOV
				has_dlc = "La Resistance" 
			}
			
			traits = { head_of_intelligence }

		}
	}
		
	army_chief = {
		
		
		semyon_timoshenko = {
			#Also unit leader: 404
			
			allowed = {
				original_tag = SOV
			}
			available = 
			{
				NOT = { has_country_flag = purge_1_group_b }
				hidden_trigger = {
					NOT = { 
						any_other_country = {
							has_war_with = SOV
							original_tag = SOV
							has_unit_leader = 404
						} 
					}
				}
			}
			

			
			traits = { army_chief_reform_2 }
			
			ai_will_do = {
				factor = 1
			}
		}
		
		kliment_voroshilov = {
			#Also unit leader: 405
			
			allowed = {
				original_tag = SOV
			}
			available = 
			{
				NOT = { has_country_flag = purge_1_group_b }
				hidden_trigger = {
					NOT = { 
						any_other_country = {
							has_war_with = SOV
							original_tag = SOV
							has_unit_leader = 405
						} 
					}
				}
			}
			

			
			traits = { army_chief_drill_1 }
			
			ai_will_do = {
				factor = 1
			}
		}
		
		alexander_yegorov = {
			
			
			allowed = {
				original_tag = SOV
			}
			available = 
			{
				NOT = { has_country_flag = purge_1_group_a }
			}
			

			
			# PURGED
			traits = { army_chief_defensive_2 }
			
			ai_will_do = {
				factor = 1
			}
		}
		
		vasily_blucher = {
			
			
			allowed = {
				original_tag = SOV

			}
			available = 
			{
				NOT = { has_country_flag = purge_1_group_a }
			}
			

			
			# PURGED
			traits = { army_chief_maneuver_2 }
			
			ai_will_do = {
				factor = 1
			}
		}	
	}
	navy_chief = {
		
		pyotr_smirnov = {
			
			
			allowed = {
				original_tag = SOV

			}
			available = 
			{
				NOT = { has_country_flag = purge_1_group_a }
			}
			

			
			# PURGED
			traits = { navy_chief_naval_aviation_1 }
			
			ai_will_do = {
				factor = 0.2
			}
		}
		
		mikhail_frinovsky = {
			
			
			allowed = {
				original_tag = SOV

			}
			available = 
			{
				NOT = { has_country_flag = purge_1_group_a }
			}
			

			
			# PURGED
			traits = { navy_chief_commerce_raiding_1 }
			
			ai_will_do = {
				factor = 0.2
			}
		}
		
		nikolay_kuznetsov = {
			
			
			allowed = {
				original_tag = SOV

			}
			available = 
			{
				NOT = { has_country_flag = purge_2_group_b }
			}
			

			
			# Not Purged, but eventually demoted
			traits = { navy_chief_reform_2 }
			
			ai_will_do = {
				factor = 0.2
			}
		}
		
		ivan_yumashev = {
			
			
			allowed = {
				original_tag = SOV

			}
			available = 
			{
				NOT = { has_country_flag = purge_1_group_b }
			}
			

			
			traits = { navy_chief_decisive_battle_2 }
			
			ai_will_do = {
				factor = 0.2
			}
		}	
	}
	
	air_chief = {
		
		
		alexander_novikov = {
						
			allowed = {
				original_tag = SOV

			}
			available = 
			{
				NOT = { has_country_flag = purge_2_group_a }
			}
			

			
			# Not Purged, but imprisoned
			traits = { air_chief_reform_3 }
			
			ai_will_do = {
				factor = 1
			}
		}
		
		konstantin_vershinin = {
			
			
			allowed = {
				original_tag = SOV

			}
			available = 
			{
				NOT = { has_country_flag = purge_2_group_b }
			}
			

			
			traits = { air_chief_ground_support_2 }
			
			ai_will_do = {
				factor = 1
			}
		}
		
		yakov_smushkevich = {
			
			
			allowed = {
				original_tag = SOV

			}
			available = 
			{
				NOT = { has_country_flag = purge_2_group_a }
			}
			

			
			# PURGED
			traits = { air_chief_safety_2 } # Could also have reform
			
			ai_will_do = {
				factor = 1
			}
		}
		
		pavel_rychagov = {
			
			
			allowed = {
				original_tag = SOV

			}
			available = 
			{
				NOT = { has_country_flag = purge_2_group_a }
			}
			

			
			# PURGED
			traits = { air_chief_all_weather_2 }
			
			ai_will_do = {
				factor = 1
			}
		}	
	}
	
	
	high_command = {
	
		ivan_konev = {
			ledger = army
			#Also unit leader: 408
			
			allowed = {
				original_tag = SOV
			}
			available = 
			{
				NOT = { has_country_flag = counter_purge }
				custom_trigger_tooltip = {
				tooltip = SOV_konev_civil_war
					NOT = { 
						any_other_country = {
							has_war_with = SOV
							original_tag = SOV
							has_unit_leader = 408
						}
					}
				}
			}
			

			
			traits = { army_concealment_2 }
			# Almost certainly a psychopath
			
			ai_will_do = {
				factor = 1
			}
		}
		
		aleksandr_vasilevsky = {
			ledger = army
			#Also unit leader: 407
			
			allowed = {
				original_tag = SOV

			}
			available = 
			{
				NOT = { has_country_flag = purge_2_group_b }
				hidden_trigger = {
					NOT = { 
						any_other_country = {
							has_war_with = SOV
							original_tag = SOV
							has_unit_leader = 407
						} 
					}
				}
			}
			

			
			traits = { army_regrouping_2 }
			
			ai_will_do = {
				factor = 1
			}
		}
		
		konstantin_rokossovsky = {
			ledger = army
			#Also unit leader: 402
			
			allowed = {
				original_tag = SOV # Unlocked via focus
				hidden_trigger = {
					NOT = {
						any_other_country = {
							has_war_with = SOV
							original_tag = SOV
							has_unit_leader = 403
						} 
					}
				}
			}
			available = 
			{
				NOT = { has_country_flag = purge_1_group_b }
				has_completed_focus = SOV_positive_heroism
			}
			

			
			# Not purged, but tried and tortured, then released
			traits = { army_armored_3 }
			
			ai_will_do = {
				factor = 1
			}
		}	
		
		pavel_zhigarev = {
			ledger = air
			
			
			allowed = {
				original_tag = SOV

			}
			available = 
			{
				NOT = { has_country_flag = counter_purge }
			}
			

			
			traits = { air_airborne_1 }
			
			ai_will_do = {
				factor = 1
			}
		}
		
		sergei_khudyakov = {
			ledger = air
			
			
			allowed = {
				original_tag = SOV

			}
			available = 
			{
				NOT = { has_country_flag = purge_2_group_b }
			}
			

			
			# Purged, but post-war
			traits = { air_close_air_support_2 }
			
			ai_will_do = {
				factor = 1
			}
		}
		
		stepan_krasovsky = {
			ledger = air
			
			
			allowed = {
				original_tag = SOV

			}
			available = 
			{
				NOT = { has_country_flag = counter_purge }
			}
			

			
			traits = { air_air_combat_training_2 }
			
			ai_will_do = {
				factor = 1
			}
		}	
		
		vladimir_kasatonov = {
			ledger = navy
			#Also unit leader: 403
			
			allowed = {
				original_tag = SOV

			}
			available = 
			{
				NOT = { has_country_flag = purge_1_group_b }
				hidden_trigger = {
					NOT = { 
						any_other_country = {
							has_war_with = SOV
							original_tag = SOV
							has_unit_leader = 403
						} 
					}
				}
			}
			

			
			traits = { navy_submarine_2 }
			
			ai_will_do = {
				factor = 0.2
			}
		}
		
		gordey_levchenko = {
			ledger = navy
			#Also unit leader: 406
			
			allowed = {
				original_tag = SOV

			}
			available = 
			{
				NOT = { has_country_flag = purge_2_group_a }
				hidden_trigger = {
					NOT = { 
						any_other_country = {
							has_war_with = SOV
							original_tag = SOV
							has_unit_leader = 406
						} 
					}
				}
			}
			

			
			# Not purged, but arrested and released
			traits = { navy_capital_ship_2 }
			
			ai_will_do = {
				factor = 0.2
			}
		}
		
		arseniy_golovko = {
			ledger = army
			#Also unit leader: 409
			
			allowed = {
				original_tag = SOV

			}
			available = 
			{
				NOT = { has_country_flag = counter_purge }
				hidden_trigger = {
					NOT = { 
						any_other_country = {
							has_war_with = SOV
							original_tag = SOV
							has_unit_leader = 409
						} 
					}
				}
			}
			

			
			traits = { navy_amphibious_assault_2 }
			
			ai_will_do = {
				factor = 0.2
			}
		}	
	}
		
	tank_manufacturer = {
		
		designer = yes
		
		morozov_design_bureau = {
			
			
			allowed = {
				OR = {
					original_tag = SOV
					AND = {
						OR = {
							is_literally_china = yes
							tag = MAN
						}
						has_dlc = "Waking the Tiger"
					}
				}
			}

			available = {
				if = {
					limit = {
						OR = {
							is_literally_china = yes
							tag = MAN
						}
					}
					has_completed_focus = CHI_hire_soviet_designer
					NOT = {
						has_war_with = SOV
					}
				}
			}
			
			research_bonus = {
				armor = 0.15
			}
			
			traits = { fast_tank_manufacturer }
			
			modifier = {
			}
		}
		
		astrov_design_bureau = {
			
			
			allowed = {
				original_tag = SOV
			}
			

			
			research_bonus = {
				armor = 0.15
			}
			
			traits = { medium_tank_manufacturer }
			
			modifier = {
			}
		}
		
		okmo = {
			
			
			allowed = {
				original_tag = SOV
			}
			

			
			research_bonus = {
				armor = 0.15
			}
			
			traits = { heavy_tank_manufacturer }
			
			modifier = {
			}
		}
	}
	
	aircraft_manufacturer = {
		
		designer = yes
		
		mig_design_bureau = {
			
			
			allowed = {
				original_tag = SOV
			}
			

			
			research_bonus = {
				air_equipment = 0.15
			}
			
			traits = { light_aircraft_manufacturer }
			
			modifier = {
			}
		}
		
		ilyushin_design_bureau = {
			
			
			allowed = {
				original_tag = SOV
			}
			

			
			research_bonus = {
				air_equipment = 0.15
			}
			
			traits = { medium_aircraft_manufacturer }
			
			modifier = {
			}
		}
		
		tupolev_design_bureau = {
			
			
			allowed = {
				original_tag = SOV
			}
			

			
			research_bonus = {
				air_equipment = 0.15
			}
			
			traits = { heavy_aircraft_manufacturer }
			
			modifier = {
			}
		}
		
		yakovlev_design_bureau = {
			
			
			allowed = {
				original_tag = SOV
			}
			

			
			research_bonus = {
				air_equipment = 0.15
			}
			
			traits = { naval_aircraft_manufacturer }
			
			modifier = {
			}
		}
	}	
	
	
	industrial_concern = {
				
		stalingrad_tractor_factory = {
		
			
			allowed = {
				original_tag = SOV
			}
			

			
			research_bonus = {
				industry = 0.15
			}
			
			traits = { industrial_concern }
			
			modifier = {
			}
		}
		
		leningrad_polytechnical_institute = {
			
			
			allowed = {
				original_tag = SOV
			}
			

			
			research_bonus = {
				electronics = 0.15
			}
			
			traits = { electronics_concern }
			
			modifier = {
			}
		}
	}
	
	materiel_manufacturer = {
			
		designer = yes
		
		grabin_design_bureau = {
			
			
			allowed = {
				original_tag = SOV
			}
			

			
			research_bonus = {
				artillery = 0.15
			}
			
			traits = { artillery_manufacturer }
			
			modifier = {
			}
		}	
		
	
		
		tula_arms_plant = {
			
			
			allowed = {
				original_tag = SOV
			}
			

			
			research_bonus = {
				infantry_weapons = 0.15
			}
			
			traits = { infantry_equipment_manufacturer }
			
			modifier = {
			}
		}
		
		gaz = {
			
			
			allowed = {
				original_tag = SOV
			}
			

			
			research_bonus = {
				motorized_equipment = 0.15
				mot_rockets = 0.50
			}
			
			traits = { motorized_equipment_manufacturer }
			
			modifier = {
			}
		}
	}
	
	naval_manufacturer = {
	
		designer = yes
		
		nevskoye_design_bureau = {
			
			
			allowed = {
				original_tag = SOV
			}
			

			
			research_bonus = {
				naval_equipment = 0.15
			}
			
			traits = { naval_manufacturer }
			
			modifier = {
			}
		}
	}
	
	theorist = {	
	
			
		mikhail_tukhachevsky = {
			ledger = army
			
			
			allowed = {
				original_tag = SOV

			}
			available = 
			{
				NOT = { has_country_flag = purge_1_group_a }
			}
			
			cost = 250
			
			research_bonus = {
				cat_mass_assault = 0.15
			}
			
			# PURGED
			traits = { mass_assault_expert }
		}
		
		boris_shaposhnikov = {
			ledger = army
			
			
			allowed = {
				original_tag = SOV
			}
			

			
			research_bonus = {
				land_doctrine = 0.10
			}
			
			traits = { military_theorist }
		}
		
		georgy_zhukov = {
			ledger = army
			
			
			allowed = {
				original_tag = SOV # Unlocked via focus

			}
			available = 
			{
				NOT = { has_country_flag = counter_purge }
			}
			available = {
				has_completed_focus = SOV_positive_heroism
			}
			
			cost = 250
			
			research_bonus = {
				cat_mass_assault = 0.15
			}
			
			traits = { mass_assault_expert }
		}
		
		sergey_gorshkov = {
			ledger = navy
			
			
			allowed = {
				original_tag = SOV

			}
			available = 
			{
				NOT = { has_country_flag = counter_purge }
			}
			
			cost = 150
			
			research_bonus = {
				naval_doctrine = 0.10
			}
			
			traits = { naval_theorist }
		}
		
		vladimir_tributs = {
			ledger = navy
			
			
			allowed = {
				original_tag = SOV
			}
			
			cost = 250
			
			research_bonus = {
				cat_fleet_in_being = 0.15
			}
			
			traits = { grand_fleet_proponent}
		}
		
		sergei_rudenko = {
			ledger = air
			
			
			allowed = {
				original_tag = SOV

			}
			available = 
			{
				NOT = { has_country_flag = counter_purge }
			}
			
			cost = 250
			
			research_bonus = {
				cat_battlefield_support = 0.15
			}
			
			traits = { close_air_support_proponent }
		}
		
		alexander_golovanov = {
			ledger = air
			
			
			allowed = {
				original_tag = SOV
			}
			

			
			research_bonus = {
				air_doctrine = 0.10
			}
			
			traits = { air_warfare_theorist }
		}
		
		igor_kurchatov = {
			ledger = army
			
			
			allowed = {
				original_tag = SOV
			}
			

			
			research_bonus = {
				nuclear = 0.15
			}
			
			traits = { nuclear_scientist }
		}
		
		sergei_korolev = {
			ledger = air
			
			
			allowed = {
				original_tag = SOV
			}
			
			research_bonus = {
				rocketry = 0.15
			}

			
			traits = { rocket_scientist }
		}
	}
	
}