
state={
	id=278
	name="STATE_278" # Pampas
	manpower = 1
	
	state_category = large_city

	history={
		buildings = {
			infrastructure = 6
			arms_factory = 2
			industrial_complex = 5
			dockyard = 1
			air_base = 4
			12364 = {
				naval_base = 7
				bunker = 1
				coastal_bunker = 1
			}
			7621 = {
				naval_base = 2
			}
			1639 = {
				naval_base = 1
			}
		}

	}

	provinces={
		1555 1568 1596 1624 1639 4573 4602 4643 7621 10375 10390 10402 10418 12351 12364 12379 12394 12409 12998 
	}
}
