
state={
	id=296
	name="STATE_296" # Guinea-Bissau
	manpower = 1
	
	state_category = enclave
	resources={
		rubber=1 # was: 1
	}
	history={
		buildings = {
			infrastructure = 2
			12891 ={
				naval_base = 1
			}
		}
	}

	provinces={
		12747 12891 
	}
}
