state=
{
	id=298
	name="STATE_298"
	manpower = 1
	
	state_category = rural
	resources={
		rubber=6 # was: 7
	}	
	

	history= {
		buildings = {
			infrastructure = 2
			arms_factory = 1
			industrial_complex = 1
			7959 = {
				naval_base = 2
			}
		}
	}
	provinces={
		7959 8006
	}
}
