
state={
	id=301
	name="STATE_301"
	manpower = 1
	
	state_category = town
	
	history={
		buildings = {
			infrastructure = 4
			arms_factory = 1
			industrial_complex = 3
			air_base = 1
		}

	}

	provinces={
		2152 2173 2194 11023 12901 
	}
	
}
