
state={
	id=346
	name="STATE_346"
	manpower = 1
	
	state_category = rural

	history={
		buildings = {
			infrastructure = 3
			air_base = 5
		}
	}

	provinces={
		784 869 940 3788 3876 6807 6894 9755 9763 9811 9861 11792 11860 13122 
	}
}
