
state={
	id=415
	name="STATE_415" # Herat
	manpower = 1
	
	state_category = rural

	history={
		buildings = {
			infrastructure = 2
		}
	}

	provinces={
		1948 1995 2017 2062 2078 2101 4893 4949 5020 5064 8053 8090 10789 12788 12871 
	}
}
