state={
	id=539
	name="STATE_539"

	history={
		owner = FRA
		add_core_of = SWE
		victory_points = {
			5139 20 
		}
		buildings = {
			infrastructure = 3
			5139 = {
				naval_base = 1

			}

		}

	}

	provinces={
		5139 8207 10948 13210 
	}
	manpower=409752
	buildings_max_level_factor=1.000
	state_category=pastoral
}
