state={
	id=662
	name="STATE_662"
	manpower = 13213
	
	state_category = wasteland
	
	
	history={
		owner = ITA
		buildings = {
			infrastructure = 1
		}
		add_core_of = SWE
	}
	
	provinces={
		4200 7076 7136 8069 13073 
	}
}
