state={
	id=701
	name="STATE_701"

	history={
		owner = ENG
		add_core_of = SWE
		victory_points = {
			4989 1 
		}
		buildings = {
			infrastructure = 3
			4989 = {
				naval_base = 1

			}

		}

	}

	provinces={
		4989 13213 
	}
	manpower=199520
	buildings_max_level_factor=1.000
	state_category=enclave
}
