
state={
	id=778
	name="STATE_778" # Upper Volta
	manpower = 3186184
	
	state_category = pastoral
	history={
		owner = FRA
		add_core_of = SWE
		victory_points = {
			10836 1
		}
		buildings = {
			infrastructure = 3
		}
	}

	provinces={
		2001 7950 7983 8071 10836 12851
	}
}
