
state={
	id=806
	name="STATE_806"

	history={
		owner = FRA
		victory_points = {
			9710 3 
		}
		buildings = {
			infrastructure = 6

		}
		add_core_of = FRA

	}

	provinces={
		743 9710  
	}
	manpower=280723
	buildings_max_level_factor=1.000
	state_category=town
}
